{
    "defaultSeverity": "error",
    "extends": [
        "tslint:recommended"
    ],
    "jsRules": {},
    "rules": {
        "only-arrow-functions": false,
        "no-console": false,
        "no-var-keyword": false,
        "no-angle-bracket-type-assertion": false,
        "triple-equals": false,
        "forin":false,
        "class-name": false
    },
    "rulesDirectory": []
}